Homework 9: Modeling Practice
…
# A tibble: 2 × 4
  .metric .estimator .estimate .config        
  <chr>   <chr>          <dbl> <chr>          
1 rmse    standard    2950.    pre0_mod0_post0
2 rsq     standard       0.917 pre0_mod0_post0

Obtain the final model coefficient table.

best_fit |>
  extract_fit_parsnip() |>
  tidy()

# A tibble: 30 × 5
   term                                estimate std.error statistic  p.value
   <chr>                                  <dbl>     <dbl>     <dbl>    <dbl>
 1 (Intercept)                           15127.     2181.     6.93  3.97e-11
 2 seasons_Spring                        -7314.     3715.    -1.97  5.02e- 2
 3 seasons_Summer                        17027.     3515.     4.84  2.33e- 6
 4 seasons_Winter                        -7739.     3180.    -2.43  1.57e- 2
 5 holiday_No.Holiday                     6216.     2055.     3.03  2.77e- 3
 6 day_of_week_weekend                   -2433.      392.    -6.21  2.47e- 9
 7 holiday_No.Holiday_x_seasons_Spring    2520.     3752.     0.672 5.02e- 1
 8 holiday_No.Holiday_x_seasons_Summer   -2849.     2881.    -0.989 3.24e- 1
 9 holiday_No.Holiday_x_seasons_Winter   -3753.     2459.    -1.53  1.28e- 1
10 seasons_Spring_x_mean_temperature_c    4524.     1115.     4.06  6.80e- 5
# ℹ 20 more rows
…
Main Arguments:
  penalty = tune()
  mixture = 1

Computational engine: glmnet 

# Fit the model
LASSO_grid <- LASSO_wkf |>
  tune_grid(resamples = bike_folds,
            grid = grid_regular(penalty(), levels = 200)) 

LASSO_grid[1, ".metrics"][[1]]

[[1]]
# A tibble: 400 × 5
    penalty .metric .estimator .estimate .config          
      <dbl> <chr>   <chr>          <dbl> <chr>            
 1 1   e-10 rmse    standard    3608.    pre0_mod001_post0
 2 1   e-10 rsq     standard       0.875 pre0_mod001_post0
 3 1.12e-10 rmse    standard    3608.    pre0_mod002_post0
 4 1.12e-10 rsq     standard       0.875 pre0_mod002_post0
 5 1.26e-10 rmse    standard    3608.    pre0_mod003_post0
 6 1.26e-10 rsq     standard       0.875 pre0_mod003_post0
 7 1.41e-10 rmse    standard    3608.    pre0_mod004_post0
 8 1.41e-10 rsq     standard       0.875 pre0_mod004_post0
 9 1.59e-10 rmse    standard    3608.    pre0_mod005_post0
10 1.59e-10 rsq     standard       0.875 pre0_mod005_post0
# ℹ 390 more rows
…
→ A | warning: There was 1 warning in `dplyr::mutate()`.
               ℹ In argument: `model = iter(...)`.
               Caused by warning:
               ! package 'future' was built under R version 4.5.2

There were issues with some computations   A: x1
There were issues with some computations   A: x1

# Check metrics
bag_fit |>
  collect_metrics() |>
  arrange(mean)

# A tibble: 30 × 7
   cost_complexity .metric .estimator  mean     n std_err .config         
             <dbl> <chr>   <chr>      <dbl> <int>   <dbl> <chr>           
 1        3.16e- 6 mae     standard   2502.    10   141.  pre0_mod08_post0
 2        2.68e- 4 mae     standard   2513.    10   140.  pre0_mod11_post0
 3        3.73e- 8 mae     standard   2527.    10   122.  pre0_mod05_post0
 4        4.39e-10 mae     standard   2540.    10   145.  pre0_mod02_post0
 5        8.48e- 9 mae     standard   2557.    10   141.  pre0_mod04_post0
 6        1.93e- 9 mae     standard   2567.    10    97.5 pre0_mod03_post0
 7        1.64e- 7 mae     standard   2610.    10   156.  pre0_mod06_post0
 8        6.11e- 5 mae     standard   2611.    10   157.  pre0_mod10_post0
 9        1   e-10 mae     standard   2612.    10   129.  pre0_mod01_post0
10        1.18e- 3 mae     standard   2625.    10   131.  pre0_mod12_post0
# ℹ 20 more rows
…
...
and 16 more lines.

tidy(MLR_final_model)

# A tibble: 30 × 5
   term                                estimate std.error statistic  p.value
   <chr>                                  <dbl>     <dbl>     <dbl>    <dbl>
 1 (Intercept)                           15127.     2181.     6.93  3.97e-11
 2 seasons_Spring                        -7314.     3715.    -1.97  5.02e- 2
 3 seasons_Summer                        17027.     3515.     4.84  2.33e- 6
 4 seasons_Winter                        -7739.     3180.    -2.43  1.57e- 2
 5 holiday_No.Holiday                     6216.     2055.     3.03  2.77e- 3
 6 day_of_week_weekend                   -2433.      392.    -6.21  2.47e- 9
 7 holiday_No.Holiday_x_seasons_Spring    2520.     3752.     0.672 5.02e- 1
 8 holiday_No.Holiday_x_seasons_Summer   -2849.     2881.    -0.989 3.24e- 1
 9 holiday_No.Holiday_x_seasons_Winter   -3753.     2459.    -1.53  1.28e- 1
10 seasons_Spring_x_mean_temperature_c    4524.     1115.     4.06  6.80e- 5
# ℹ 20 more rows
…
